digraph pastafarianism {
ordering=out;
graph [fontname="times-roman"];
node [fontname="times-roman"];
edge [fontname="times-roman"];
"Simple BT controller" [fillcolor=gold, fontcolor=black, fontsize=9, label="Simple BT controller\nSuccessOnAll", shape=parallelogram, style=filled];
Topics2BB [fillcolor=orange, fontcolor=black, fontsize=9, label="Ⓜ Topics2BB", shape=box, style=filled];
"Simple BT controller" -> Topics2BB;
irtof2bb [fillcolor=gray, fontcolor=black, fontsize=9, label=irtof2bb, shape=ellipse, style=filled];
Topics2BB -> irtof2bb;
odom2bb [fillcolor=gray, fontcolor=black, fontsize=9, label=odom2bb, shape=ellipse, style=filled];
Topics2BB -> odom2bb;
FakeSequence [fillcolor=ghostwhite, fontcolor=black, fontsize=9, label=FakeSequence, shape=ellipse, style=filled];
"Simple BT controller" -> FakeSequence;
"FS Priorities" [fillcolor=cyan, fontcolor=black, fontsize=9, label="FS Priorities", shape=octagon, style=filled];
FakeSequence -> "FS Priorities";
Inverter [fillcolor=ghostwhite, fontcolor=black, fontsize=9, label=Inverter, shape=ellipse, style=filled];
"FS Priorities" -> Inverter;
"Proc irtof" [fillcolor=gray, fontcolor=black, fontsize=9, label="Proc irtof", shape=ellipse, style=filled];
Inverter -> "Proc irtof";
"Inverter*" [fillcolor=ghostwhite, fontcolor=black, fontsize=9, label="Inverter*", shape=ellipse, style=filled];
"FS Priorities" -> "Inverter*";
"Proc vision" [fillcolor=gray, fontcolor=black, fontsize=9, label="Proc vision", shape=ellipse, style=filled];
"Inverter*" -> "Proc vision";
"Inverter**" [fillcolor=ghostwhite, fontcolor=black, fontsize=9, label="Inverter**", shape=ellipse, style=filled];
"FS Priorities" -> "Inverter**";
Fetch [fillcolor=orange, fontcolor=black, fontsize=9, label="Ⓜ Fetch", shape=box, style=filled];
"Inverter**" -> Fetch;
"Find carrier" [fillcolor=cyan, fontcolor=black, fontsize=9, label="Find carrier", shape=octagon, style=filled];
Fetch -> "Find carrier";
"Finish centering" [fillcolor=orange, fontcolor=black, fontsize=9, label="Ⓜ Finish centering", shape=box, style=filled];
"Find carrier" -> "Finish centering";
"Centered under carrier?" [fillcolor=gray, fontcolor=black, fontsize=9, label="Centered under carrier?", shape=ellipse, style=filled];
"Finish centering" -> "Centered under carrier?";
"zero cmd_vel" [fillcolor=gray, fontcolor=black, fontsize=9, label="zero cmd_vel", shape=ellipse, style=filled];
"Finish centering" -> "zero cmd_vel";
SuccessIsRunning [fillcolor=ghostwhite, fontcolor=black, fontsize=9, label=SuccessIsRunning, shape=ellipse, style=filled];
"Find carrier" -> SuccessIsRunning;
"Centre if under" [fillcolor=orange, fontcolor=black, fontsize=9, label="Ⓜ Centre if under", shape=box, style=filled];
SuccessIsRunning -> "Centre if under";
"Under carrier?" [fillcolor=gray, fontcolor=black, fontsize=9, label="Under carrier?", shape=ellipse, style=filled];
"Centre if under" -> "Under carrier?";
"centre cmd_vel" [fillcolor=gray, fontcolor=black, fontsize=9, label="centre cmd_vel", shape=ellipse, style=filled];
"Centre if under" -> "centre cmd_vel";
"SuccessIsRunning*" [fillcolor=ghostwhite, fontcolor=black, fontsize=9, label="SuccessIsRunning*", shape=ellipse, style=filled];
"Find carrier" -> "SuccessIsRunning*";
"Under if aligned" [fillcolor=orange, fontcolor=black, fontsize=9, label="Ⓜ Under if aligned", shape=box, style=filled];
"SuccessIsRunning*" -> "Under if aligned";
"Aligned to carrier?" [fillcolor=gray, fontcolor=black, fontsize=9, label="Aligned to carrier?", shape=ellipse, style=filled];
"Under if aligned" -> "Aligned to carrier?";
"under cmd_vel" [fillcolor=gray, fontcolor=black, fontsize=9, label="under cmd_vel", shape=ellipse, style=filled];
"Under if aligned" -> "under cmd_vel";
"SuccessIsRunning**" [fillcolor=ghostwhite, fontcolor=black, fontsize=9, label="SuccessIsRunning**", shape=ellipse, style=filled];
"Find carrier" -> "SuccessIsRunning**";
"Coll avoid" [fillcolor=orange, fontcolor=black, fontsize=9, label="Ⓜ Coll avoid", shape=box, style=filled];
"SuccessIsRunning**" -> "Coll avoid";
"Obstacles?" [fillcolor=gray, fontcolor=black, fontsize=9, label="Obstacles?", shape=ellipse, style=filled];
"Coll avoid" -> "Obstacles?";
"avoid cmd_vel" [fillcolor=gray, fontcolor=black, fontsize=9, label="avoid cmd_vel", shape=ellipse, style=filled];
"Coll avoid" -> "avoid cmd_vel";
"SuccessIsRunning***" [fillcolor=ghostwhite, fontcolor=black, fontsize=9, label="SuccessIsRunning***", shape=ellipse, style=filled];
"Find carrier" -> "SuccessIsRunning***";
"Align if found" [fillcolor=orange, fontcolor=black, fontsize=9, label="Ⓜ Align if found", shape=box, style=filled];
"SuccessIsRunning***" -> "Align if found";
"Seen carrier?" [fillcolor=gray, fontcolor=black, fontsize=9, label="Seen carrier?", shape=ellipse, style=filled];
"Align if found" -> "Seen carrier?";
"align cmd_vel" [fillcolor=gray, fontcolor=black, fontsize=9, label="align cmd_vel", shape=ellipse, style=filled];
"Align if found" -> "align cmd_vel";
"SuccessIsRunning****" [fillcolor=ghostwhite, fontcolor=black, fontsize=9, label="SuccessIsRunning****", shape=ellipse, style=filled];
"Find carrier" -> "SuccessIsRunning****";
Wander [fillcolor=orange, fontcolor=black, fontsize=9, label="Ⓜ Wander", shape=box, style=filled];
"SuccessIsRunning****" -> Wander;
"Pick direction" [fillcolor=gray, fontcolor=black, fontsize=9, label="Pick direction", shape=ellipse, style=filled];
Wander -> "Pick direction";
"random cmd_vel" [fillcolor=gray, fontcolor=black, fontsize=9, label="random cmd_vel", shape=ellipse, style=filled];
Wander -> "random cmd_vel";
"Wander delay" [fillcolor=gray, fontcolor=black, fontsize=9, label="Wander delay", shape=ellipse, style=filled];
Wander -> "Wander delay";
"Raise lifter" [fillcolor=gray, fontcolor=black, fontsize=9, label="Raise lifter", shape=ellipse, style=filled];
Fetch -> "Raise lifter";
"home cmd_vel" [fillcolor=gray, fontcolor=black, fontsize=9, label="home cmd_vel", shape=ellipse, style=filled];
Fetch -> "home cmd_vel";
FailureIsRunning [fillcolor=ghostwhite, fontcolor=black, fontsize=9, label=FailureIsRunning, shape=ellipse, style=filled];
Fetch -> FailureIsRunning;
"In dropzone?" [fillcolor=gray, fontcolor=black, fontsize=9, label="In dropzone?", shape=ellipse, style=filled];
FailureIsRunning -> "In dropzone?";
"Lower lifter" [fillcolor=gray, fontcolor=black, fontsize=9, label="Lower lifter", shape=ellipse, style=filled];
Fetch -> "Lower lifter";
"Escape carrier" [fillcolor=cyan, fontcolor=black, fontsize=9, label="Escape carrier", shape=octagon, style=filled];
Fetch -> "Escape carrier";
"Finish centering2" [fillcolor=orange, fontcolor=black, fontsize=9, label="Ⓜ Finish centering2", shape=box, style=filled];
"Escape carrier" -> "Finish centering2";
"Centered under carrier2?" [fillcolor=gray, fontcolor=black, fontsize=9, label="Centered under carrier2?", shape=ellipse, style=filled];
"Finish centering2" -> "Centered under carrier2?";
"zero cmd_vel2" [fillcolor=gray, fontcolor=black, fontsize=9, label="zero cmd_vel2", shape=ellipse, style=filled];
"Finish centering2" -> "zero cmd_vel2";
"SuccessIsRunning*****" [fillcolor=ghostwhite, fontcolor=black, fontsize=9, label="SuccessIsRunning*****", shape=ellipse, style=filled];
"Escape carrier" -> "SuccessIsRunning*****";
"Centre if under2" [fillcolor=orange, fontcolor=black, fontsize=9, label="Ⓜ Centre if under2", shape=box, style=filled];
"SuccessIsRunning*****" -> "Centre if under2";
"Under carrier2?" [fillcolor=gray, fontcolor=black, fontsize=9, label="Under carrier2?", shape=ellipse, style=filled];
"Centre if under2" -> "Under carrier2?";
"centre cmd_vel2" [fillcolor=gray, fontcolor=black, fontsize=9, label="centre cmd_vel2", shape=ellipse, style=filled];
"Centre if under2" -> "centre cmd_vel2";
"away cmd_vel" [fillcolor=gray, fontcolor=black, fontsize=9, label="away cmd_vel", shape=ellipse, style=filled];
Fetch -> "away cmd_vel";
"Away delay" [fillcolor=gray, fontcolor=black, fontsize=9, label="Away delay", shape=ellipse, style=filled];
Fetch -> "Away delay";
"Inverter***" [fillcolor=ghostwhite, fontcolor=black, fontsize=9, label="Inverter***", shape=ellipse, style=filled];
"FS Priorities" -> "Inverter***";
Idle [fillcolor=gray, fontcolor=black, fontsize=9, label=Idle, shape=ellipse, style=filled];
"Inverter***" -> Idle;
}
