<?xml version="1.0" encoding="UTF-8" standalone="no"?>
<!DOCTYPE svg PUBLIC "-//W3C//DTD SVG 1.1//EN"
 "http://www.w3.org/Graphics/SVG/1.1/DTD/svg11.dtd">
<!-- Generated by graphviz version 2.43.0 (0)
 -->
<!-- Title: pastafarianism Pages: 1 -->
<svg width="1038pt" height="208pt"
 viewBox="0.00 0.00 1038.36 208.00" xmlns="http://www.w3.org/2000/svg" xmlns:xlink="http://www.w3.org/1999/xlink">
<g id="graph0" class="graph" transform="scale(1 1) rotate(0) translate(4 204)">
<title>pastafarianism</title>
<polygon fill="white" stroke="transparent" points="-4,4 -4,-204 1034.36,-204 1034.36,4 -4,4"/>
<!-- The Bot -->
<g id="node1" class="node">
<title>The Bot</title>
<polygon fill="gold" stroke="black" points="461.06,-200 329.21,-200 295.3,-144 427.14,-144 461.06,-200"/>
<text text-anchor="middle" x="378.18" y="-174.8" font-family="Times,serif" font-size="9.00">The Bot</text>
<text text-anchor="middle" x="378.18" y="-164.8" font-family="Times,serif" font-size="9.00">SuccessOnAll</text>
</g>
<!-- Topics2BB -->
<g id="node2" class="node">
<title>Topics2BB</title>
<polygon fill="orange" stroke="black" points="172.18,-108 94.18,-108 94.18,-72 172.18,-72 172.18,-108"/>
<text text-anchor="middle" x="133.18" y="-87.8" font-family="Times,serif" font-size="9.00">Ⓜ Topics2BB</text>
</g>
<!-- The Bot&#45;&gt;Topics2BB -->
<g id="edge1" class="edge">
<title>The Bot&#45;&gt;Topics2BB</title>
<path fill="none" stroke="black" d="M295.23,-143.92C257.61,-131.63 214.42,-117.53 182.1,-106.97"/>
<polygon fill="black" stroke="black" points="183.02,-103.59 172.43,-103.82 180.85,-110.25 183.02,-103.59"/>
</g>
<!-- Scanner -->
<g id="node4" class="node">
<title>Scanner</title>
<polygon fill="orange" stroke="black" points="307.68,-108 240.68,-108 240.68,-72 307.68,-72 307.68,-108"/>
<text text-anchor="middle" x="274.18" y="-87.8" font-family="Times,serif" font-size="9.00">Ⓜ Scanner</text>
</g>
<!-- The Bot&#45;&gt;Scanner -->
<g id="edge3" class="edge">
<title>The Bot&#45;&gt;Scanner</title>
<path fill="none" stroke="black" d="M342.97,-143.92C330.42,-134.27 316.42,-123.49 304.34,-114.2"/>
<polygon fill="black" stroke="black" points="306.38,-111.36 296.32,-108.03 302.11,-116.9 306.38,-111.36"/>
</g>
<!-- Obstacle check -->
<g id="node8" class="node">
<title>Obstacle check</title>
<polygon fill="orange" stroke="black" points="528.68,-108 429.68,-108 429.68,-72 528.68,-72 528.68,-108"/>
<text text-anchor="middle" x="479.18" y="-87.8" font-family="Times,serif" font-size="9.00">Ⓜ Obstacle check</text>
</g>
<!-- The Bot&#45;&gt;Obstacle check -->
<g id="edge7" class="edge">
<title>The Bot&#45;&gt;Obstacle check</title>
<path fill="none" stroke="black" d="M412.37,-143.92C424.44,-134.36 437.89,-123.7 449.55,-114.47"/>
<polygon fill="black" stroke="black" points="452.01,-116.99 457.67,-108.03 447.66,-111.5 452.01,-116.99"/>
</g>
<!-- Wander -->
<g id="node12" class="node">
<title>Wander</title>
<polygon fill="orange" stroke="black" points="840.68,-108 775.68,-108 775.68,-72 840.68,-72 840.68,-108"/>
<text text-anchor="middle" x="808.18" y="-87.8" font-family="Times,serif" font-size="9.00">Ⓜ Wander</text>
</g>
<!-- The Bot&#45;&gt;Wander -->
<g id="edge11" class="edge">
<title>The Bot&#45;&gt;Wander</title>
<path fill="none" stroke="black" d="M437.06,-160.04C525.01,-143.68 688.55,-113.26 765.75,-98.89"/>
<polygon fill="black" stroke="black" points="766.42,-102.33 775.61,-97.06 765.14,-95.45 766.42,-102.33"/>
</g>
<!-- irtof2bb -->
<g id="node3" class="node">
<title>irtof2bb</title>
<ellipse fill="gray" stroke="black" cx="31.18" cy="-18" rx="31.35" ry="18"/>
<text text-anchor="middle" x="31.18" y="-15.8" font-family="Times,serif" font-size="9.00">irtof2bb</text>
</g>
<!-- Topics2BB&#45;&gt;irtof2bb -->
<g id="edge2" class="edge">
<title>Topics2BB&#45;&gt;irtof2bb</title>
<path fill="none" stroke="black" d="M108.22,-71.88C93.34,-61.66 74.4,-48.66 59.02,-38.11"/>
<polygon fill="black" stroke="black" points="60.67,-34.99 50.44,-32.22 56.7,-40.76 60.67,-34.99"/>
</g>
<!-- Proc vision -->
<g id="node5" class="node">
<title>Proc vision</title>
<ellipse fill="gray" stroke="black" cx="119.18" cy="-18" rx="39.02" ry="18"/>
<text text-anchor="middle" x="119.18" y="-15.8" font-family="Times,serif" font-size="9.00">Proc vision</text>
</g>
<!-- Scanner&#45;&gt;Proc vision -->
<g id="edge4" class="edge">
<title>Scanner&#45;&gt;Proc vision</title>
<path fill="none" stroke="black" d="M240.54,-73.81C215.44,-62.47 181.17,-47 155.45,-35.38"/>
<polygon fill="black" stroke="black" points="156.61,-32.06 146.05,-31.14 153.72,-38.44 156.61,-32.06"/>
</g>
<!-- Seen carrier? -->
<g id="node6" class="node">
<title>Seen carrier?</title>
<ellipse fill="gray" stroke="black" cx="222.18" cy="-18" rx="45.72" ry="18"/>
<text text-anchor="middle" x="222.18" y="-15.8" font-family="Times,serif" font-size="9.00">Seen carrier?</text>
</g>
<!-- Scanner&#45;&gt;Seen carrier? -->
<g id="edge5" class="edge">
<title>Scanner&#45;&gt;Seen carrier?</title>
<path fill="none" stroke="black" d="M261.32,-71.7C255.06,-63.27 247.42,-52.97 240.55,-43.73"/>
<polygon fill="black" stroke="black" points="243.3,-41.56 234.52,-35.62 237.68,-45.74 243.3,-41.56"/>
</g>
<!-- align cmd_vel -->
<g id="node7" class="node">
<title>align cmd_vel</title>
<ellipse fill="gray" stroke="black" cx="332.18" cy="-18" rx="46.38" ry="18"/>
<text text-anchor="middle" x="332.18" y="-15.8" font-family="Times,serif" font-size="9.00">align cmd_vel</text>
</g>
<!-- Scanner&#45;&gt;align cmd_vel -->
<g id="edge6" class="edge">
<title>Scanner&#45;&gt;align cmd_vel</title>
<path fill="none" stroke="black" d="M288.51,-71.7C295.57,-63.18 304.2,-52.76 311.92,-43.45"/>
<polygon fill="black" stroke="black" points="314.72,-45.56 318.4,-35.62 309.33,-41.09 314.72,-45.56"/>
</g>
<!-- Proc irtof -->
<g id="node9" class="node">
<title>Proc irtof</title>
<ellipse fill="gray" stroke="black" cx="431.18" cy="-18" rx="34.78" ry="18"/>
<text text-anchor="middle" x="431.18" y="-15.8" font-family="Times,serif" font-size="9.00">Proc irtof</text>
</g>
<!-- Obstacle check&#45;&gt;Proc irtof -->
<g id="edge8" class="edge">
<title>Obstacle check&#45;&gt;Proc irtof</title>
<path fill="none" stroke="black" d="M467.31,-71.7C461.51,-63.23 454.41,-52.89 448.05,-43.61"/>
<polygon fill="black" stroke="black" points="450.79,-41.41 442.25,-35.14 445.02,-45.37 450.79,-41.41"/>
</g>
<!-- Is obstacles? -->
<g id="node10" class="node">
<title>Is obstacles?</title>
<ellipse fill="gray" stroke="black" cx="527.18" cy="-18" rx="43.1" ry="18"/>
<text text-anchor="middle" x="527.18" y="-15.8" font-family="Times,serif" font-size="9.00">Is obstacles?</text>
</g>
<!-- Obstacle check&#45;&gt;Is obstacles? -->
<g id="edge9" class="edge">
<title>Obstacle check&#45;&gt;Is obstacles?</title>
<path fill="none" stroke="black" d="M491.04,-71.7C496.76,-63.35 503.74,-53.18 510.02,-44.02"/>
<polygon fill="black" stroke="black" points="513.01,-45.85 515.78,-35.62 507.24,-41.89 513.01,-45.85"/>
</g>
<!-- Avoid obstacle -->
<g id="node11" class="node">
<title>Avoid obstacle</title>
<ellipse fill="gray" stroke="black" cx="636.18" cy="-18" rx="47.84" ry="18"/>
<text text-anchor="middle" x="636.18" y="-15.8" font-family="Times,serif" font-size="9.00">Avoid obstacle</text>
</g>
<!-- Obstacle check&#45;&gt;Avoid obstacle -->
<g id="edge10" class="edge">
<title>Obstacle check&#45;&gt;Avoid obstacle</title>
<path fill="none" stroke="black" d="M517.58,-71.88C541.79,-61.08 572.94,-47.19 597.24,-36.36"/>
<polygon fill="black" stroke="black" points="598.82,-39.49 606.53,-32.22 595.97,-33.1 598.82,-39.49"/>
</g>
<!-- Pick direction -->
<g id="node13" class="node">
<title>Pick direction</title>
<ellipse fill="gray" stroke="black" cx="749.18" cy="-18" rx="46.53" ry="18"/>
<text text-anchor="middle" x="749.18" y="-15.8" font-family="Times,serif" font-size="9.00">Pick direction</text>
</g>
<!-- Wander&#45;&gt;Pick direction -->
<g id="edge12" class="edge">
<title>Wander&#45;&gt;Pick direction</title>
<path fill="none" stroke="black" d="M793.59,-71.7C786.41,-63.18 777.64,-52.76 769.78,-43.45"/>
<polygon fill="black" stroke="black" points="772.31,-41.01 763.19,-35.62 766.96,-45.52 772.31,-41.01"/>
</g>
<!-- random cmd_vel -->
<g id="node14" class="node">
<title>random cmd_vel</title>
<ellipse fill="gray" stroke="black" cx="867.18" cy="-18" rx="53.23" ry="18"/>
<text text-anchor="middle" x="867.18" y="-15.8" font-family="Times,serif" font-size="9.00">random cmd_vel</text>
</g>
<!-- Wander&#45;&gt;random cmd_vel -->
<g id="edge13" class="edge">
<title>Wander&#45;&gt;random cmd_vel</title>
<path fill="none" stroke="black" d="M822.76,-71.7C829.94,-63.18 838.72,-52.76 846.57,-43.45"/>
<polygon fill="black" stroke="black" points="849.4,-45.52 853.17,-35.62 844.05,-41.01 849.4,-45.52"/>
</g>
<!-- Wander delay -->
<g id="node15" class="node">
<title>Wander delay</title>
<ellipse fill="gray" stroke="black" cx="984.18" cy="-18" rx="46.38" ry="18"/>
<text text-anchor="middle" x="984.18" y="-15.8" font-family="Times,serif" font-size="9.00">Wander delay</text>
</g>
<!-- Wander&#45;&gt;Wander delay -->
<g id="edge14" class="edge">
<title>Wander&#45;&gt;Wander delay</title>
<path fill="none" stroke="black" d="M840.87,-76C869.84,-64.47 912.27,-47.6 943.44,-35.2"/>
<polygon fill="black" stroke="black" points="945.14,-38.29 953.14,-31.35 942.55,-31.79 945.14,-38.29"/>
</g>
</g>
</svg>
